^D:\EXAMENSARBETE\EXTRA HFILER\EXARBPARTOBJ2D3D\MAIN\DATA.CPP|D:\EXAMENSARBETE\EXTRA HFILER\EXARBPARTOBJ2D3D\MAIN\MAIN.CPP|D:\EXAMENSARBETE\EXTRA HFILER\EXARBPARTOBJ2D3D\MAIN\MOVEMENT2D.CPP|D:\EXAMENSARBETE\EXTRA HFILER\EXARBPARTOBJ2D3D\MAIN\MOVEMENT3D.CPP|D:\EXAMENSARBETE\EXTRA HFILER\EXARBPARTOBJ2D3D\MAIN\SETUP.CPP|D:\EXAMENSARBETE\EXTRA HFILER\EXARBPARTOBJ2D3D\MAIN\STAT.CPP|D:\EXAMENSARBETE\EXTRA HFILER\EXARBPARTOBJ2D3D\MAIN\STDAFX.CPP|D:\EXAMENSARBETE\EXTRA HFILER\EXARBPARTOBJ2D3D\MAIN\TIMER.CPP
D:\EXAMENSARBETE\EXTRA HFILER\EXARBPARTOBJ2D3D\MAIN\X64\RELEASE\TIMER.OBJ
D:\EXAMENSARBETE\EXTRA HFILER\EXARBPARTOBJ2D3D\MAIN\X64\RELEASE\STDAFX.OBJ
D:\EXAMENSARBETE\EXTRA HFILER\EXARBPARTOBJ2D3D\MAIN\X64\RELEASE\STAT.OBJ
D:\EXAMENSARBETE\EXTRA HFILER\EXARBPARTOBJ2D3D\MAIN\X64\RELEASE\SETUP.OBJ
D:\EXAMENSARBETE\EXTRA HFILER\EXARBPARTOBJ2D3D\MAIN\X64\RELEASE\MOVEMENT3D.OBJ
D:\EXAMENSARBETE\EXTRA HFILER\EXARBPARTOBJ2D3D\MAIN\X64\RELEASE\MOVEMENT2D.OBJ
D:\EXAMENSARBETE\EXTRA HFILER\EXARBPARTOBJ2D3D\MAIN\X64\RELEASE\MAIN.OBJ
D:\EXAMENSARBETE\EXTRA HFILER\EXARBPARTOBJ2D3D\MAIN\X64\RELEASE\DATA.OBJ
^D:\EXAMENSARBETE\EXTRA HFILER\EXARBPARTOBJ2D3D\MAIN\DATA.CPP
D:\EXAMENSARBETE\EXTRA HFILER\EXARBPARTOBJ2D3D\MAIN\X64\RELEASE\VC100.PDB
^D:\EXAMENSARBETE\EXTRA HFILER\EXARBPARTOBJ2D3D\MAIN\MAIN.CPP
D:\EXAMENSARBETE\EXTRA HFILER\EXARBPARTOBJ2D3D\MAIN\X64\RELEASE\VC100.PDB
^D:\EXAMENSARBETE\EXTRA HFILER\EXARBPARTOBJ2D3D\MAIN\MOVEMENT2D.CPP
D:\EXAMENSARBETE\EXTRA HFILER\EXARBPARTOBJ2D3D\MAIN\X64\RELEASE\VC100.PDB
^D:\EXAMENSARBETE\EXTRA HFILER\EXARBPARTOBJ2D3D\MAIN\MOVEMENT3D.CPP
D:\EXAMENSARBETE\EXTRA HFILER\EXARBPARTOBJ2D3D\MAIN\X64\RELEASE\VC100.PDB
^D:\EXAMENSARBETE\EXTRA HFILER\EXARBPARTOBJ2D3D\MAIN\SETUP.CPP
D:\EXAMENSARBETE\EXTRA HFILER\EXARBPARTOBJ2D3D\MAIN\X64\RELEASE\VC100.PDB
^D:\EXAMENSARBETE\EXTRA HFILER\EXARBPARTOBJ2D3D\MAIN\STAT.CPP
D:\EXAMENSARBETE\EXTRA HFILER\EXARBPARTOBJ2D3D\MAIN\X64\RELEASE\VC100.PDB
^D:\EXAMENSARBETE\EXTRA HFILER\EXARBPARTOBJ2D3D\MAIN\STDAFX.CPP
D:\EXAMENSARBETE\EXTRA HFILER\EXARBPARTOBJ2D3D\MAIN\X64\RELEASE\VC100.PDB
^D:\EXAMENSARBETE\EXTRA HFILER\EXARBPARTOBJ2D3D\MAIN\TIMER.CPP
D:\EXAMENSARBETE\EXTRA HFILER\EXARBPARTOBJ2D3D\MAIN\X64\RELEASE\VC100.PDB
