^D:\EXAMENSARBETE\EXTRA HFILER\EXARBVISUALOBJWIN2D\MAIN\DATA.CPP
/c /IC:\allegro\include /ZI /nologo /W3 /WX- /Od /Oy- /D WIN32 /D _DEBUG /D _WINDOWS /D _UNICODE /D UNICODE /Gm /EHsc /RTC1 /MDd /GS /fp:precise /Zc:wchar_t /Zc:forScope /Fo"Debug\\" /Fd"Debug\vc100.pdb" /Gd /TP /analyze- /errorReport:prompt D:\EXAMENSARBETE\EXTRA HFILER\EXARBVISUALOBJWIN2D\MAIN\DATA.CPP
^D:\EXAMENSARBETE\EXTRA HFILER\EXARBVISUALOBJWIN2D\MAIN\MAIN.CPP
/c /IC:\allegro\include /ZI /nologo /W3 /WX- /Od /Oy- /D WIN32 /D _DEBUG /D _WINDOWS /D _UNICODE /D UNICODE /Gm /EHsc /RTC1 /MDd /GS /fp:precise /Zc:wchar_t /Zc:forScope /Fo"Debug\\" /Fd"Debug\vc100.pdb" /Gd /TP /analyze- /errorReport:prompt D:\EXAMENSARBETE\EXTRA HFILER\EXARBVISUALOBJWIN2D\MAIN\MAIN.CPP
^D:\EXAMENSARBETE\EXTRA HFILER\EXARBVISUALOBJWIN2D\MAIN\MOVEMENT.CPP
/c /IC:\allegro\include /ZI /nologo /W3 /WX- /Od /Oy- /D WIN32 /D _DEBUG /D _WINDOWS /D _UNICODE /D UNICODE /Gm /EHsc /RTC1 /MDd /GS /fp:precise /Zc:wchar_t /Zc:forScope /Fo"Debug\\" /Fd"Debug\vc100.pdb" /Gd /TP /analyze- /errorReport:prompt D:\EXAMENSARBETE\EXTRA HFILER\EXARBVISUALOBJWIN2D\MAIN\MOVEMENT.CPP
^D:\EXAMENSARBETE\EXTRA HFILER\EXARBVISUALOBJWIN2D\MAIN\SETUP.CPP
/c /IC:\allegro\include /ZI /nologo /W3 /WX- /Od /Oy- /D WIN32 /D _DEBUG /D _WINDOWS /D _UNICODE /D UNICODE /Gm /EHsc /RTC1 /MDd /GS /fp:precise /Zc:wchar_t /Zc:forScope /Fo"Debug\\" /Fd"Debug\vc100.pdb" /Gd /TP /analyze- /errorReport:prompt D:\EXAMENSARBETE\EXTRA HFILER\EXARBVISUALOBJWIN2D\MAIN\SETUP.CPP
^D:\EXAMENSARBETE\EXTRA HFILER\EXARBVISUALOBJWIN2D\MAIN\STAT.CPP
/c /IC:\allegro\include /ZI /nologo /W3 /WX- /Od /Oy- /D WIN32 /D _DEBUG /D _WINDOWS /D _UNICODE /D UNICODE /Gm /EHsc /RTC1 /MDd /GS /fp:precise /Zc:wchar_t /Zc:forScope /Fo"Debug\\" /Fd"Debug\vc100.pdb" /Gd /TP /analyze- /errorReport:prompt D:\EXAMENSARBETE\EXTRA HFILER\EXARBVISUALOBJWIN2D\MAIN\STAT.CPP
^D:\EXAMENSARBETE\EXTRA HFILER\EXARBVISUALOBJWIN2D\MAIN\STDAFX.CPP
/c /IC:\allegro\include /ZI /nologo /W3 /WX- /Od /Oy- /D WIN32 /D _DEBUG /D _WINDOWS /D _UNICODE /D UNICODE /Gm /EHsc /RTC1 /MDd /GS /fp:precise /Zc:wchar_t /Zc:forScope /Fo"Debug\\" /Fd"Debug\vc100.pdb" /Gd /TP /analyze- /errorReport:prompt D:\EXAMENSARBETE\EXTRA HFILER\EXARBVISUALOBJWIN2D\MAIN\STDAFX.CPP
^D:\EXAMENSARBETE\EXTRA HFILER\EXARBVISUALOBJWIN2D\MAIN\TIMER.CPP
/c /IC:\allegro\include /ZI /nologo /W3 /WX- /Od /Oy- /D WIN32 /D _DEBUG /D _WINDOWS /D _UNICODE /D UNICODE /Gm /EHsc /RTC1 /MDd /GS /fp:precise /Zc:wchar_t /Zc:forScope /Fo"Debug\\" /Fd"Debug\vc100.pdb" /Gd /TP /analyze- /errorReport:prompt D:\EXAMENSARBETE\EXTRA HFILER\EXARBVISUALOBJWIN2D\MAIN\TIMER.CPP
^D:\EXAMENSARBETE\EXTRA HFILER\EXARBPARTOBJ2D3D\MAIN\DATA.CPP
/c /IC:\allegro\include /ZI /nologo /W3 /WX- /Od /Oy- /D WIN32 /D _DEBUG /D _WINDOWS /D _UNICODE /D UNICODE /Gm /EHsc /RTC1 /MDd /GS /fp:precise /Zc:wchar_t /Zc:forScope /openmp /Fo"Debug\\" /Fd"Debug\vc100.pdb" /Gd /TP /analyze- /errorReport:prompt D:\EXAMENSARBETE\EXTRA HFILER\EXARBPARTOBJ2D3D\MAIN\DATA.CPP
^D:\EXAMENSARBETE\EXTRA HFILER\EXARBPARTOBJ2D3D\MAIN\MAIN.CPP
/c /IC:\allegro\include /ZI /nologo /W3 /WX- /Od /Oy- /D WIN32 /D _DEBUG /D _WINDOWS /D _UNICODE /D UNICODE /Gm /EHsc /RTC1 /MDd /GS /fp:precise /Zc:wchar_t /Zc:forScope /openmp /Fo"Debug\\" /Fd"Debug\vc100.pdb" /Gd /TP /analyze- /errorReport:prompt D:\EXAMENSARBETE\EXTRA HFILER\EXARBPARTOBJ2D3D\MAIN\MAIN.CPP
^D:\EXAMENSARBETE\EXTRA HFILER\EXARBPARTOBJ2D3D\MAIN\MOVEMENT.CPP
/c /IC:\allegro\include /ZI /nologo /W3 /WX- /Od /Oy- /D WIN32 /D _DEBUG /D _WINDOWS /D _UNICODE /D UNICODE /Gm /EHsc /RTC1 /MDd /GS /fp:precise /Zc:wchar_t /Zc:forScope /openmp /Fo"Debug\\" /Fd"Debug\vc100.pdb" /Gd /TP /analyze- /errorReport:prompt D:\EXAMENSARBETE\EXTRA HFILER\EXARBPARTOBJ2D3D\MAIN\MOVEMENT.CPP
^D:\EXAMENSARBETE\EXTRA HFILER\EXARBPARTOBJ2D3D\MAIN\SETUP.CPP
/c /IC:\allegro\include /ZI /nologo /W3 /WX- /Od /Oy- /D WIN32 /D _DEBUG /D _WINDOWS /D _UNICODE /D UNICODE /Gm /EHsc /RTC1 /MDd /GS /fp:precise /Zc:wchar_t /Zc:forScope /openmp /Fo"Debug\\" /Fd"Debug\vc100.pdb" /Gd /TP /analyze- /errorReport:prompt D:\EXAMENSARBETE\EXTRA HFILER\EXARBPARTOBJ2D3D\MAIN\SETUP.CPP
^D:\EXAMENSARBETE\EXTRA HFILER\EXARBPARTOBJ2D3D\MAIN\STAT.CPP
/c /IC:\allegro\include /ZI /nologo /W3 /WX- /Od /Oy- /D WIN32 /D _DEBUG /D _WINDOWS /D _UNICODE /D UNICODE /Gm /EHsc /RTC1 /MDd /GS /fp:precise /Zc:wchar_t /Zc:forScope /openmp /Fo"Debug\\" /Fd"Debug\vc100.pdb" /Gd /TP /analyze- /errorReport:prompt D:\EXAMENSARBETE\EXTRA HFILER\EXARBPARTOBJ2D3D\MAIN\STAT.CPP
^D:\EXAMENSARBETE\EXTRA HFILER\EXARBPARTOBJ2D3D\MAIN\STDAFX.CPP
/c /IC:\allegro\include /ZI /nologo /W3 /WX- /Od /Oy- /D WIN32 /D _DEBUG /D _WINDOWS /D _UNICODE /D UNICODE /Gm /EHsc /RTC1 /MDd /GS /fp:precise /Zc:wchar_t /Zc:forScope /openmp /Fo"Debug\\" /Fd"Debug\vc100.pdb" /Gd /TP /analyze- /errorReport:prompt D:\EXAMENSARBETE\EXTRA HFILER\EXARBPARTOBJ2D3D\MAIN\STDAFX.CPP
^D:\EXAMENSARBETE\EXTRA HFILER\EXARBPARTOBJ2D3D\MAIN\TIMER.CPP
/c /IC:\allegro\include /ZI /nologo /W3 /WX- /Od /Oy- /D WIN32 /D _DEBUG /D _WINDOWS /D _UNICODE /D UNICODE /Gm /EHsc /RTC1 /MDd /GS /fp:precise /Zc:wchar_t /Zc:forScope /openmp /Fo"Debug\\" /Fd"Debug\vc100.pdb" /Gd /TP /analyze- /errorReport:prompt D:\EXAMENSARBETE\EXTRA HFILER\EXARBPARTOBJ2D3D\MAIN\TIMER.CPP
^D:\EXAMENSARBETE\EXTRA HFILER\EXARBPARTOBJ2D3D\MAIN\MOVEMENT2D.CPP
/c /IC:\allegro\include /ZI /nologo /W3 /WX- /Od /Oy- /D WIN32 /D _DEBUG /D _WINDOWS /D _UNICODE /D UNICODE /Gm /EHsc /RTC1 /MDd /GS /fp:precise /Zc:wchar_t /Zc:forScope /openmp /Fo"Debug\\" /Fd"Debug\vc100.pdb" /Gd /TP /analyze- /errorReport:prompt D:\EXAMENSARBETE\EXTRA HFILER\EXARBPARTOBJ2D3D\MAIN\MOVEMENT2D.CPP
^D:\EXAMENSARBETE\EXTRA HFILER\EXARBPARTOBJ2D3D\MAIN\MOVEMENT3D.CPP
/c /IC:\allegro\include /ZI /nologo /W3 /WX- /Od /Oy- /D WIN32 /D _DEBUG /D _WINDOWS /D _UNICODE /D UNICODE /Gm /EHsc /RTC1 /MDd /GS /fp:precise /Zc:wchar_t /Zc:forScope /openmp /Fo"Debug\\" /Fd"Debug\vc100.pdb" /Gd /TP /analyze- /errorReport:prompt D:\EXAMENSARBETE\EXTRA HFILER\EXARBPARTOBJ2D3D\MAIN\MOVEMENT3D.CPP
