﻿Build started 2012-07-26 11:41:56.
     1>Project "D:\Examensarbete\Extra hfiler\exarbPartObj2D3D\main\main.vcxproj" on node 2 (build target(s)).
     1>InitializeBuildStatus:
         Touching "Debug\main.unsuccessfulbuild".
       ClCompile:
         C:\Program Files (x86)\Microsoft Visual Studio 10.0\VC\bin\CL.exe /c /IC:\allegro\include /ZI /nologo /W3 /WX- /Od /Oy- /D WIN32 /D _DEBUG /D _WINDOWS /D _UNICODE /D UNICODE /Gm /EHsc /RTC1 /MDd /GS /fp:precise /Zc:wchar_t /Zc:forScope /openmp /Fo"Debug\\" /Fd"Debug\vc100.pdb" /Gd /TP /analyze- /errorReport:prompt data.cpp main.cpp movement2D.cpp movement3D.cpp setup.cpp stat.cpp timer.cpp
         timer.cpp
         stat.cpp
         setup.cpp
         movement3D.cpp
         movement2D.cpp
         main.cpp
     1>d:\examensarbete\extra hfiler\exarbpartobj2d3d\main\main.cpp(23): fatal error C1083: Cannot open include file: 'allegro.h': No such file or directory
         data.cpp
         Generating Code...
     1>Done Building Project "D:\Examensarbete\Extra hfiler\exarbPartObj2D3D\main\main.vcxproj" (build target(s)) -- FAILED.

Build FAILED.

Time Elapsed 00:00:06.69
